The Cifti Data Structure in R
…
# get the cortical data from the dataframe, name columns by their TR number, then convert to a tibble
cort_ts <- rest_cii$data[1:(lhvert+rhvert),] 
colnames(cort_ts) <- sprintf('TR_%s',seq(1,ncol(rest_cii$data)))
cort_ts <- as_tibble(cort_ts)

# add vertex and hemisphere designation to time series
cortical_rest <- tibble(hemi = rep(areas[1:2],times = c(lhvert,rhvert)),
                        vertex = c(rest_cii$BrainModel[[1]],
                                   rest_cii$BrainModel[[2]]),
                        cort_ts)

cortical_rest

# A tibble: 59,412 × 1,202
   hemi    vertex   TR_1   TR_2   TR_3   TR_4   TR_5   TR_6   TR_7   TR_8   TR_9
   <chr>    <dbl>  <dbl>  <dbl>  <dbl>  <dbl>  <dbl>  <dbl>  <dbl>  <dbl>  <dbl>
 1 CIFTI_…      0 11080. 10631. 10815. 10822. 11066. 10718. 10729. 10740. 10828.
 2 CIFTI_…      1  9024.  8972.  8948.  9030.  9062.  9023.  8839.  8953.  8887.
 3 CIFTI_…      2  8399.  8398.  8435.  8393.  8499.  8435.  8403.  8445.  8406.
 4 CIFTI_…      3 13957. 13956. 14039. 14022. 13993. 13824. 13867. 14139. 13901.
 5 CIFTI_…      4  9830.  9831.  9716.  9945.  9747.  9920.  9875.  9820.  9757.
 6 CIFTI_…      5  8821.  8689.  8716.  8591.  8518.  8663.  8569.  8665.  8643.
 7 CIFTI_…      6 14528. 14574. 14175. 14593. 14271. 14448. 14380. 14337. 14237.
 8 CIFTI_…      8 12588. 12453. 12334. 12743. 11746. 12552. 12873. 12783. 12377.
 9 CIFTI_…      9  7188.  7202.  7196.  7201.  7205.  7216.  7188.  7180.  7125.
10 CIFTI_…     10 11486. 11930. 11223. 11407. 11931. 10985. 11667. 11963. 11468.
# … with 59,402 more rows, and 1,191 more variables: TR_10 <dbl>, TR_11 <dbl>,
#   TR_12 <dbl>, TR_13 <dbl>, TR_14 <dbl>, TR_15 <dbl>, TR_16 <dbl>,
#   TR_17 <dbl>, TR_18 <dbl>, TR_19 <dbl>, TR_20 <dbl>, TR_21 <dbl>,
#   TR_22 <dbl>, TR_23 <dbl>, TR_24 <dbl>, TR_25 <dbl>, TR_26 <dbl>,
#   TR_27 <dbl>, TR_28 <dbl>, TR_29 <dbl>, TR_30 <dbl>, TR_31 <dbl>,
#   TR_32 <dbl>, TR_33 <dbl>, TR_34 <dbl>, TR_35 <dbl>, TR_36 <dbl>,
#   TR_37 <dbl>, TR_38 <dbl>, TR_39 <dbl>, TR_40 <dbl>, TR_41 <dbl>, …
…
# get the subcortical data from the dataframe, name columns by their TR number, then convert to a tibble
subcort_ts <- rest_cii$data[-(1:cort_vert),] # -(1:(lhvert+rhvert)) removes rows from index 1 to cort_vert
colnames(subcort_ts) <- sprintf('TR_%s',seq(1,ncol(rest_cii$data)))
subcort_ts <- as_tibble(subcort_ts)

subcortical_rest <- tibble(area = rep(areas[-(1:2)], times = subcortical_ordinate_count[-(1:2)]),
                           coords,
                           subcort_ts)

subcortical_rest

# A tibble: 31,870 × 1,204
   area           i     j     k   TR_1   TR_2   TR_3   TR_4   TR_5   TR_6   TR_7
   <chr>      <dbl> <dbl> <dbl>  <dbl>  <dbl>  <dbl>  <dbl>  <dbl>  <dbl>  <dbl>
 1 CIFTI_STR…    49    66    28 15240. 14360. 15391. 15032. 12862. 14726. 15090.
 2 CIFTI_STR…    50    66    28 15638. 15564. 16683. 14691. 14413. 14595. 14603.
 3 CIFTI_STR…    48    67    28 14189. 13153. 12935. 13628. 13604. 13070. 13693.
 4 CIFTI_STR…    49    67    28 14181. 13154. 12941. 13613. 13599. 13065. 13688.
 5 CIFTI_STR…    50    67    28 13525. 13277. 13470. 12208. 13158. 12644. 13300.
 6 CIFTI_STR…    48    65    29 14615. 14598. 15121. 14311. 16033. 14690. 15387.
 7 CIFTI_STR…    49    65    29 14624. 13710. 15236. 14888. 14645. 14879. 13985.
 8 CIFTI_STR…    50    65    29 15113. 14616. 15959. 14786. 14585. 14742. 14252.
 9 CIFTI_STR…    48    66    29 15866. 15666. 16395. 15861. 14309. 15825. 15285.
10 CIFTI_STR…    49    66    29 15238. 14371. 15306. 14986. 12904. 14845. 15046.
# … with 31,860 more rows, and 1,193 more variables: TR_8 <dbl>, TR_9 <dbl>,
#   TR_10 <dbl>, TR_11 <dbl>, TR_12 <dbl>, TR_13 <dbl>, TR_14 <dbl>,
#   TR_15 <dbl>, TR_16 <dbl>, TR_17 <dbl>, TR_18 <dbl>, TR_19 <dbl>,
#   TR_20 <dbl>, TR_21 <dbl>, TR_22 <dbl>, TR_23 <dbl>, TR_24 <dbl>,
#   TR_25 <dbl>, TR_26 <dbl>, TR_27 <dbl>, TR_28 <dbl>, TR_29 <dbl>,
#   TR_30 <dbl>, TR_31 <dbl>, TR_32 <dbl>, TR_33 <dbl>, TR_34 <dbl>,
#   TR_35 <dbl>, TR_36 <dbl>, TR_37 <dbl>, TR_38 <dbl>, TR_39 <dbl>, …
…
